Data/snapshots/sid/tmp/main-1004.jpg 0.11805178 0.021039467 -0.10421062 0.01639865 -0.10721652 0.15812726 -0.11303393 -0.1325867 0.07660219 0.034871038 -0.052687015 0.0028264595 -0.055810876 -0.044989713 0.05202517 -0.014282996 0.20342046 0.087987125 0.07104093 -0.0646631 0.107683904 -0.112563424 0.07876996 -0.10704218 0.02539581 0.07285151 -0.08840907 -0.042722784 -0.043579634 0.1086416 0.049085844 0.05116873 -0.017719734 -0.004991821 0.14152665 0.096002854 -0.15387867 0.102537185 0.1311736 0.1042697 -0.018675819 0.085609816 0.002758843 -0.09813093 0.0506499 0.15248832 -0.052347794 0.095194295 -0.017832559 0.116845906 0.12570731 -0.08014309 0.043718893 0.006408455 0.28388187 -0.029498512 -0.09752694 -0.089021824 0.043202497 -0.15029234 -0.02044538 -0.17662166 0.11635093 -0.10737797 0.070714794 -0.117414564 -0.15799311 -0.010250617 -0.048292793 -0.06434023 0.0145951975 0.036955014 -0.007247416 -0.1599726 0.032601047 0.00051895494 -0.07522747 -0.033085216 -0.03247811 -0.039644245 -0.003977917 -0.028072719 0.02100484 0.033811327 0.0006483918 0.03177246 -0.0818412 -0.01004975 -0.076542184 -0.035388436 0.077641115 0.109328926 0.023352498 0.11159648 0.017931577 0.047084685 0.08116069 0.107601926 -0.17904998 -0.0027309146 0.11104649 0.03243837 -0.020118915 -0.002570547 -0.18630777 -0.09338416 -0.108023405 0.12513451 -0.020314377 -0.07768504 -0.012696643 0.016821347 -0.078858614 -0.03477027 0.020515367 -0.05500793 0.018224405 -0.004077747 0.097713545 -0.07948321 -0.01864729 -0.038109586 0.18283291 -0.18588008 -0.09125779 -0.042475414 -0.049482614 -0.014207462 
Data/snapshots/sid/tmp/main-1001.jpg 0.1592881 -0.024446642 -0.031097129 0.002408606 -0.07948429 0.2601289 -0.19201295 -0.04609434 0.14389989 -0.030474264 -0.13820598 0.050140124 0.0218814 0.023996722 -0.023667146 0.011549819 0.15469961 0.08579001 0.20665835 -0.002877017 0.06978821 0.00081503886 0.04610733 -0.13351884 0.017092945 0.016142424 -0.09431176 -0.08729173 0.020215848 0.14836077 -0.009234592 0.030902525 -0.006624175 0.017518146 0.1182549 0.037052676 -0.13773492 0.09187114 0.01594995 0.08124712 0.0150963925 0.03698806 0.12424879 0.033005152 0.05221416 0.012260712 -0.058601364 0.057667054 -0.041476473 0.06433984 0.16922088 -0.088174164 -0.051329035 -0.036409993 0.13936533 -0.081894875 -0.042591725 -0.13183245 0.018300291 -0.1688396 -0.05095939 -0.092635624 0.14007448 -0.076705016 -0.048613448 -0.0946501 -0.10819035 -0.02184586 -0.12932135 -0.10636731 0.05828332 -0.11161773 -0.043693125 -0.034430806 0.06975606 0.05665985 -0.049608145 -0.007210305 -0.05940624 -0.088519156 0.11105151 -0.010476753 -0.04198268 0.13715218 0.07333631 -0.13698366 0.053324442 -0.029858604 -0.17298742 -0.060040835 -0.018344251 0.048471887 0.027937518 -0.031955406 -0.13365977 0.070422895 0.047848027 0.040146183 -0.17158921 -0.022521736 -0.016610805 -0.060535554 -0.0026411414 -0.03212454 -0.21670397 -0.067755215 -0.14762406 0.07321091 -0.006572068 -0.05449092 0.0733066 -0.045733232 -0.04501591 -0.029700657 0.05005318 -0.11006102 0.05221909 -0.021771237 0.047305375 -0.1296082 0.032210037 -0.084842 0.14313735 0.037377596 0.07691749 -0.07026365 -0.12858224 0.03797682 
Data/snapshots/sid/tmp/main-1002.jpg -0.04508081 -0.058221765 -0.072542466 0.077022165 -0.07667167 0.1746263 -0.061962802 -0.0349218 0.033071168 0.091609806 0.027363513 -0.08763077 0.017794916 -0.16907215 0.10742062 -0.15185478 0.041615903 -0.033728052 0.013979323 -0.12609327 0.06461456 -0.09643623 0.05372764 -0.031702854 -0.044966206 -0.04473178 -0.023241086 0.03353497 -0.15689541 0.11723299 0.060822673 -0.005112674 0.04794955 -0.05139242 0.09914711 0.018390708 -0.09510418 0.010205369 0.10836861 -0.047548246 0.048441153 0.060488857 0.0021389155 -0.038543772 0.020053098 0.15146036 0.093372576 0.022063106 -0.023760105 0.08593393 0.11216839 -0.07739819 0.04426426 -0.09093151 0.10051464 0.10137487 0.010433793 -0.12508526 -0.079967394 -0.1475141 -0.016388213 -0.11613397 0.05030557 -0.07917461 0.11750166 -0.20216978 -0.16516435 -0.023242295 -0.11241584 -0.09517675 0.029668503 0.018347815 -0.0756338 -0.15494595 0.017352048 0.06641683 -0.082037345 0.053974636 -0.13101639 0.12752037 -0.0077941073 -0.022509659 0.09403833 0.03924619 0.08802277 -0.0508595 0.07027396 0.16947307 -0.13083252 -0.061621446 0.029842786 0.031552266 0.009193491 0.2871779 0.0955188 -0.0029803505 0.019424547 0.10144361 -0.10512437 -0.017928516 0.12586585 -0.10517872 0.06515168 -0.0053805276 -0.1506768 -0.084663756 -0.06657052 0.09216839 0.092847876 -0.06774245 -0.03916573 -0.12241704 -0.13637596 0.08226238 -0.038816273 -0.027219288 0.118377 0.002933142 0.05594621 0.022579866 0.003539404 -0.045807913 0.07800885 0.036743302 -0.07371298 -0.096771725 -0.14661653 0.07288783 
Data/snapshots/sid/tmp/main-1003.jpg 0.09723174 -0.089498445 0.008489134 0.03687995 0.011928222 0.062379297 -0.09454433 -0.10734949 0.08021077 0.097573675 -0.12532562 -0.14884713 0.058964953 -0.122516856 -0.07920242 -0.09451094 0.057205636 -0.055002157 0.010035744 -0.19369584 0.04542738 0.06765032 -0.07289922 0.021321451 0.07196192 0.068455175 0.15706274 0.055345986 -0.08224984 0.071546264 0.040374137 0.09722844 0.06745286 -0.11941093 0.1693177 0.113389716 -0.0068513644 -0.031470865 0.10223085 0.10756619 0.05743065 -0.020339902 -0.0036185367 -0.113980174 0.052778885 -0.011659962 -0.023776134 0.054354075 -0.12491902 -0.051410083 -0.0018336395 0.026074227 -0.0034578633 -0.024982398 0.14448309 0.116696335 0.11429672 -0.18947968 -0.068346076 -0.20025156 -0.03196583 -0.2505711 0.079127155 -0.08663141 -0.08092966 -0.024901075 -0.022209335 0.021281928 -0.18721329 -0.12514521 0.09045667 -0.019255785 -0.015472219 -0.101816885 0.09218979 -0.010723875 -0.0828609 0.09718961 -0.027252728 -0.026327787 0.07584059 0.03658675 0.059115425 0.10670264 0.10289077 -0.0033431456 0.00081619684 0.01424654 0.037345555 0.010056144 -0.12823787 0.035387296 0.03813979 0.10987581 0.06813294 0.07153643 -0.07422545 0.014634023 -0.047891915 -0.022400983 0.10759606 0.07715451 -0.015891002 -0.26081192 -0.14100923 -0.04353563 -0.15501356 0.10243816 0.09648212 -0.08782301 -0.039783303 -0.018462814 -0.0067746416 -0.019776568 -0.003968782 0.075514555 0.016163817 -0.009151894 -0.026113795 0.036219947 0.032022607 -0.105224185 0.11825594 -0.0917696 0.092295155 0.13113332 0.04897623 0.0022895795 
Data/snapshots/sid/tmp/main-1000.jpg 0.057138864 -0.15723287 -0.05592673 0.024857542 -0.15739062 0.08389142 -0.14794819 -0.10197648 -0.0022987518 0.07583341 -0.18346463 -0.052826293 -0.019071057 0.019414201 -0.14911044 -0.18228185 0.041148163 -0.047476128 -0.0084843105 -0.116699055 0.17460786 -0.046222504 0.024420891 -0.10911006 0.0813914 -0.0746606 -0.033574805 -0.089906566 -0.011320254 0.11177373 0.089325555 0.112834625 0.07635712 0.014849373 -0.04078336 -0.03493764 -0.054566354 0.020119362 -0.032096084 -0.054756254 0.052355144 0.07781072 -0.040081497 -0.03534103 0.010140461 0.03876184 -0.00083687337 0.12731938 -0.08967854 0.04023219 0.043206587 -0.08551024 -0.02196747 -0.1546062 0.16711552 0.03215095 -0.054073516 -0.14979751 0.17086257 -0.16368747 -0.01944605 -0.20229506 0.029140515 -0.05579728 -0.059645843 -0.10719964 -0.16930905 0.011293938 -0.17328808 -0.17963465 -0.10798506 -0.051463757 -0.0031719818 -0.21846105 0.06360366 -0.016216228 -0.01931309 0.00586791 -0.049348608 -0.09894871 0.0029006714 0.0048351535 -0.08772579 0.14537898 0.0010812018 -0.018770743 -0.067959495 -0.006892835 -0.08200501 0.039344758 0.019506322 -0.0024790291 -0.030758703 0.0646701 0.12791745 0.0064763976 0.15237455 0.044471387 0.03870393 -0.031063909 0.10017031 -0.06460279 0.05439368 -0.029670713 -0.1536257 -0.07030363 -0.042930897 0.12398641 -0.015095568 -0.12539668 0.04733641 -0.1521573 -0.058816213 0.06443157 0.036968183 -0.043751795 0.06015041 -0.03804989 -0.09506834 0.041321132 0.0650378 -0.075014345 -0.065362774 0.008533483 -0.079122156 -0.020775218 -0.10580437 0.05330575 
